brand;oem;price;valuta
Suzuki;01204-08257-000;0.51;JPY
Suzuki;01254-08557-000;0.74;JPY
Suzuki;01411-06127-000;0.50;JPY
Suzuki;01411-0612A-000;0.00;JPY
Suzuki;01411-0825A-000;0.68;JPY
Suzuki;01411-0875A-000;0.67;JPY
Suzuki;01411-1016A-000;0.81;JPY
Suzuki;01421-0612A-000;0.39;JPY
Suzuki;01421-0616A-000;0.50;JPY
Suzuki;01421-0616B-000;0.66;JPY
Suzuki;01421-0620A-000;0.00;JPY
Suzuki;01421-0625A-000;0.61;JPY
Suzuki;01421-0625B-000;0.69;JPY
Suzuki;01421-0695A-000;0.65;JPY
Suzuki;01421-0820A-000;0.38;JPY
Suzuki;01421-0820B-000;0.46;JPY
Suzuki;01421-0825A-000;0.40;JPY
Suzuki;01421-0830A-000;0.48;JPY
Suzuki;01500-0612A-000;0.36;JPY
Suzuki;01500-06167-000;0.62;JPY
Suzuki;01500-0620A-000;0.35;JPY
Suzuki;01500-0625A-000;0.93;JPY
Suzuki;01500-0816B-000;0.64;JPY
Suzuki;01500-0825A-000;0.00;JPY
Suzuki;01500-0835B-000;0.78;JPY
Suzuki;01500-08557-000;1.22;JPY
Suzuki;01500-0855B-000;0.00;JPY
Suzuki;01500-1020B-000;1.46;JPY
Suzuki;01500-1055A-000;1.00;JPY
Suzuki;01500-1225A-000;0.00;JPY
Suzuki;01500-1230A-000;0.71;JPY
Suzuki;01547-0610B-000;0.48;JPY
Suzuki;01547-06123-000;0.48;JPY
Suzuki;01547-0612A-000;0.82;JPY
Suzuki;01547-0612B-000;0.67;JPY
Suzuki;01547-0616A-000;0.60;JPY
Suzuki;01547-0616B-000;0.64;JPY
Suzuki;01547-06203-000;1.00;JPY
Suzuki;01547-0620B-000;0.82;JPY
Suzuki;01547-06257-000;0.61;JPY
Suzuki;01547-0625A-000;0.71;JPY
Suzuki;01547-0625B-000;0.97;JPY
Suzuki;01547-0630A-000;0.71;JPY
Suzuki;01547-0630B-000;1.15;JPY